[
    {
    "func": {
        "path": "HesServices/services",
        "req_method": "POST",
        "service_desc": "Service Descriptopn",
        "auth_type": "Basic",
        "query_string": {
            "func": { "is_require": true, "val": "validate", "desc": "func_name"
                },
            "cno": { "is_require": true, "val": "0282000001800168", "desc": "card no"
                },
            "bt": { "is_require": true, "val": "20201222120937", "desc": "Boaarding Date Time", "format": "YYYYMMDDHHmmss"
                }
            },
        "body_string": {
            "type": "json",
            "body":{
                "func":"validate",
                "cno":"0282000001800168",
                "bt":"20201222120937"
            }
            }
        }
    },
    {
    "func": {
        "path": "HesServices/services",
        "req_method": "GET",
        "service_desc": "Service Descriptopn",
        "auth_type": null,
        "query_string": {
            "func": { "is_require": true, "val": "validate", "desc": "func_name"
                },
            "cno": { "is_require": true, "val": "0282000001800168", "desc": "card no"
                },
            "bt": { "is_require": true, "val": "20201222120937", "desc": "Boaarding Date Time", "format": "YYYYMMDDHHmmss"
                }
            },
        "body_string": {
            "type": "json"
            }
        }
    },
    {
        "func": {
            "path": "HesServices/services",
            "req_method": "GET",
            "service_desc": "Service Descriptopn",
            "auth_type": null,
            "query_string": {
                "func": { "is_require": true, "val": "validate", "desc": "funname"
                    },
                "cno": { "is_require": true, "val": "0282000001800168", "desc": "card no"
                    },
                "bt": { "is_require": true, "val": "20201222120937", "desc": "Boaarding Date Time", "format": "YYYYMMDDHHmmss"
                    }
                },
            "body_string": {
                "type": "json"
                }
            }
        }
]
